8 Scenario VII: binomial distribution, Gaussian prior | Validation Report for adoptr package
…
testthat::expect_true(tbl_toer$toer <= alpha * (1 + tol))
testthat::expect_true(tbl_toer$toer_sim <= alpha * (1 + tol))

The conditional power is evaluated via numerical integration on several points inside the continuation region and it is tested whether the constraint is fulfilled on all these points.

tibble(
    x1 = seq(opt_cp$design@c1f, opt_cp$design@c1e, length.out = 25),
    cp = map_dbl(x1, ~evaluate(cp, opt_cp$design, .)) ) %>% 
  {print(.); .} %>% {
      testthat::expect_true(all(.$cp >= 0.7 * (1 - tol))) }

## # A tibble: 25 × 2
##       x1    cp
##    <dbl> <dbl>
##  1 0.397 0.699
##  2 0.486 0.700
##  3 0.575 0.700
##  4 0.664 0.700
##  5 0.753 0.700
##  6 0.842 0.698
##  7 0.930 0.696
##  8 1.02  0.699
##  9 1.11  0.709
## 10 1.20  0.724
## # … with 15 more rows
…
